<svg width="153" height="56" viewBox="0 0 153 56" fill="none" xmlns="http://www.w3.org/2000/svg">
<rect width="152.2" height="56" rx="20" fill="#FFAE5D"/>
<path d="M25.6 29.2C27.5882 29.2 29.2 27.5882 29.2 25.6C29.2 23.6118 27.5882 22 25.6 22C23.6118 22 22 23.6118 22 25.6C22 27.5882 23.6118 29.2 25.6 29.2Z" stroke="black" stroke-width="2" stroke-linecap="round" stroke-linejoin="round"/>
<path d="M25.6 16C23.0539 16 20.6121 17.0114 18.8118 18.8118C17.0114 20.6121 16 23.0539 16 25.6C16 27.8704 16.4824 29.356 17.8 31L25.6 40L33.4 31C34.7176 29.356 35.2 27.8704 35.2 25.6C35.2 23.0539 34.1886 20.6121 32.3882 18.8118C30.5879 17.0114 28.1461 16 25.6 16V16Z" stroke="black" stroke-width="2" stroke-linecap="round" stroke-linejoin="round"/>
<path d="M50.032 22.88C51.216 22.88 52.2507 23.1093 53.136 23.568C54.032 24.016 54.72 24.6667 55.2 25.52C55.6907 26.3627 55.936 27.3493 55.936 28.48C55.936 29.6107 55.6907 30.592 55.2 31.424C54.72 32.256 54.032 32.896 53.136 33.344C52.2507 33.7813 51.216 34 50.032 34H46.4V22.88H50.032ZM50.032 32.512C51.3333 32.512 52.3307 32.16 53.024 31.456C53.7173 30.752 54.064 29.76 54.064 28.48C54.064 27.1893 53.7173 26.1813 53.024 25.456C52.3307 24.7307 51.3333 24.368 50.032 24.368H48.224V32.512H50.032ZM65.8237 29.376C65.8237 29.7067 65.8024 30.0053 65.7597 30.272H59.0237C59.0771 30.976 59.3384 31.5413 59.8077 31.968C60.2771 32.3947 60.8531 32.608 61.5357 32.608C62.5171 32.608 63.2104 32.1973 63.6157 31.376H65.5837C65.3171 32.1867 64.8317 32.8533 64.1277 33.376C63.4344 33.888 62.5704 34.144 61.5357 34.144C60.6931 34.144 59.9357 33.9573 59.2637 33.584C58.6024 33.2 58.0797 32.6667 57.6957 31.984C57.3224 31.2907 57.1357 30.4907 57.1357 29.584C57.1357 28.6773 57.3171 27.8827 57.6797 27.2C58.0531 26.5067 58.5704 25.9733 59.2317 25.6C59.9037 25.2267 60.6717 25.04 61.5357 25.04C62.3677 25.04 63.1091 25.2213 63.7597 25.584C64.4104 25.9467 64.9171 26.4587 65.2797 27.12C65.6424 27.7707 65.8237 28.5227 65.8237 29.376ZM63.9197 28.8C63.9091 28.128 63.6691 27.5893 63.1997 27.184C62.7304 26.7787 62.1491 26.576 61.4557 26.576C60.8264 26.576 60.2877 26.7787 59.8397 27.184C59.3917 27.5787 59.1251 28.1173 59.0397 28.8H63.9197ZM69.4427 22.16V34H67.6187V22.16H69.4427ZM76.3975 25.04C77.0695 25.04 77.6668 25.184 78.1895 25.472C78.7228 25.76 79.1388 26.1867 79.4375 26.752C79.7468 27.3173 79.9015 28 79.9015 28.8V34H78.0935V29.072C78.0935 28.2827 77.8962 27.68 77.5015 27.264C77.1068 26.8373 76.5682 26.624 75.8855 26.624C75.2028 26.624 74.6588 26.8373 74.2535 27.264C73.8588 27.68 73.6615 28.2827 73.6615 29.072V34H71.8375V22.16H73.6615V26.208C73.9708 25.8347 74.3602 25.5467 74.8295 25.344C75.3095 25.1413 75.8322 25.04 76.3975 25.04ZM83.1561 24.016C82.8255 24.016 82.5481 23.904 82.3241 23.68C82.1001 23.456 81.9881 23.1787 81.9881 22.848C81.9881 22.5173 82.1001 22.24 82.3241 22.016C82.5481 21.792 82.8255 21.68 83.1561 21.68C83.4761 21.68 83.7481 21.792 83.9721 22.016C84.1961 22.24 84.3081 22.5173 84.3081 22.848C84.3081 23.1787 84.1961 23.456 83.9721 23.68C83.7481 23.904 83.4761 24.016 83.1561 24.016ZM84.0521 25.184V34H82.2281V25.184H84.0521ZM88.4469 31.808L86.5109 36.224H85.3269L86.4629 31.808H88.4469ZM93.7169 24V22.336H97.0449V34H95.2049V24H93.7169ZM99.3106 24V22.336H102.639V34H100.799V24H99.3106ZM105.144 28.016C105.144 26.1707 105.454 24.7307 106.072 23.696C106.702 22.6507 107.779 22.128 109.304 22.128C110.83 22.128 111.902 22.6507 112.52 23.696C113.15 24.7307 113.464 26.1707 113.464 28.016C113.464 29.8827 113.15 31.344 112.52 32.4C111.902 33.4453 110.83 33.968 109.304 33.968C107.779 33.968 106.702 33.4453 106.072 32.4C105.454 31.344 105.144 29.8827 105.144 28.016ZM111.672 28.016C111.672 27.152 111.614 26.4213 111.496 25.824C111.39 25.2267 111.166 24.7413 110.824 24.368C110.483 23.984 109.976 23.792 109.304 23.792C108.632 23.792 108.126 23.984 107.784 24.368C107.443 24.7413 107.214 25.2267 107.096 25.824C106.99 26.4213 106.936 27.152 106.936 28.016C106.936 28.912 106.99 29.664 107.096 30.272C107.203 30.88 107.427 31.3707 107.768 31.744C108.12 32.1173 108.632 32.304 109.304 32.304C109.976 32.304 110.483 32.1173 110.824 31.744C111.176 31.3707 111.406 30.88 111.512 30.272C111.619 29.664 111.672 28.912 111.672 28.016ZM115.154 24V22.336H118.482V34H116.642V24H115.154ZM120.748 24V22.336H124.076V34H122.236V24H120.748ZM126.582 28.016C126.582 26.1707 126.891 24.7307 127.51 23.696C128.139 22.6507 129.217 22.128 130.742 22.128C132.267 22.128 133.339 22.6507 133.958 23.696C134.587 24.7307 134.902 26.1707 134.902 28.016C134.902 29.8827 134.587 31.344 133.958 32.4C133.339 33.4453 132.267 33.968 130.742 33.968C129.217 33.968 128.139 33.4453 127.51 32.4C126.891 31.344 126.582 29.8827 126.582 28.016ZM133.11 28.016C133.11 27.152 133.051 26.4213 132.934 25.824C132.827 25.2267 132.603 24.7413 132.262 24.368C131.921 23.984 131.414 23.792 130.742 23.792C130.07 23.792 129.563 23.984 129.222 24.368C128.881 24.7413 128.651 25.2267 128.534 25.824C128.427 26.4213 128.374 27.152 128.374 28.016C128.374 28.912 128.427 29.664 128.534 30.272C128.641 30.88 128.865 31.3707 129.206 31.744C129.558 32.1173 130.07 32.304 130.742 32.304C131.414 32.304 131.921 32.1173 132.262 31.744C132.614 31.3707 132.843 30.88 132.95 30.272C133.057 29.664 133.11 28.912 133.11 28.016Z" fill="black"/>
</svg>
